ngram,tag
car,N
door,N
book,N
arm,N
give,V
boy,N
man,N
leave,V
bed,N
bone,N
dumb,J
go,V
accept,V
argue,V
take,V
wife,N
clothes,N
gun,N
body,N
forget,V
join,V
task,N
keep,V
apple,N
easy,J
people,N
word,N
bad,J
father,N
alcohol,N
bring,V
cloud,N
intelligence,N
know,V
ignore,V
flower,N
think,V
president,N
borrow,V
friend,N
stomach,N
happy,J
hard,J
bath,N
become,V
woman,N
mouse,N
attend,V
get,V
god,N
belief,N
make,V
cat,N
strange,J
pretend,V
sly,J
send,V
guy,N
portray,V
ball,N
hand,N
horse,N
teacher,N
beach,N
money,N
box,N
bedroom,N
boat,N
create,V
come,V
flexible,J
floor,N
big,J
succeed,V
house,N
ask,V
band,N
vein,N
choice,N
new,J
doctor,N
opinion,N
meat,N
log,N
adult,N
narrow,J
listen,V
add,V
winner,N
child,N
learn,V
destroy,V
please,V
kill,V
acquire,V
mother,N
decide,V
mad,J
dinner,N
brother,N
wonderful,J
trick,N
night,N
chair,N
head,N
meal,N
conquest,N
beer,N
bee,N
room,N
container,N
management,N
bowl,N
save,V
ceiling,N
guilty,J
carry,V
cattle,N
sell,V
mouth,N
baseball,N
muscle,N
neck,N
cent,N
hallway,N
nail,N
sea,N
begin,V
necessary,J
beg,V
remain,V
river,N
camera,N
liquor,N
put,V
chicken,N
protect,V
participate,V
large,J
choose,V
princess,N
breakfast,N
island,N
bread,N
great,J
plead,V
presence,N
possess,V
bird,N
business,N
organize,V
receive,V
rice,N
notify,V
condition,N
comprehend,V
reject,V
chapter,N
cabin,N
rare,J
huge,J
hymn,N
cab,N
communication,N
lose,V
idea,N
nerve,N
bean,N
grass,N
achieve,V
agree,V
appear,V
find,V
tail,N
area,N
argument,N
cup,N
dull,J
army,N
forgive,V
crowd,N
wealth,N
strength,N
crime,N
fraternity,N
acknowledge,V
straw,N
apartment,N
agreement,N
terrific,J
understand,V
tough,J
deck,N
explain,V
tongue,N
try,V
uncle,N
anger,N
enter,V
daughter,N
deliver,V
endurance,N
fail,V
death,N
day,N
ankle,N
dawn,N
story,N
arrive,V
wine,N
game,N
difficult,J
disappear,V
absorb,V
worker,N
bacon,N
shrink,V
shoulder,N
size,N
win,V
discover,V
fur,N
girl,N
son,N
whiskey,N
fresh,J
steal,V
accomplish,V
weird,J
storm,N
simple,J
lemon,N
lend,V
discourage,V
mink,N
differ,V
meter,N
leg,N
mayor,N
engine,N
catastrophe,N
lawyer,N
metal,N
mist,N
choke,V
entertain,V
dirty,J
modest,J
cigar,N
delightful,J
knee,N
defend,V
lip,N
liver,N
melody,N
earn,V
maple,N
dog,N
champagne,N
do,V
dictionary,N
century,N
dominate,V
doorway,N
drum,N
king,N
maid,N
magnitude,N
divide,V
diet,N
meet,V
dense,J
disease,N
elbow,N
cheap,J
elect,V
elevator,N
deny,V
long,J
logic,N
emotion,N
cheerful,J
dentist,N
marry,V
literature,N
employer,N
kitchen,N
jar,N
evaluate,V
confidence,N
hear,V
frigid,J
creator,N
heavy,J
crib,N
helper,N
hen,N
highway,N
funny,J
hole,N
young,J
formula,N
hose,N
complain,V
competence,N
foot,N
fun,N
furniture,N
hut,N
course,N
guardian,N
corridor,N
cooperate,V
goal,N
couch,N
glad,J
gin,N
hang,V
crazy,J
happen,V
happiness,N
generous,J
gather,V
cow,N
hat,N
construct,V
husband,N
foolish,J
evening,N
fabric,N
jacket,N
jail,N
grow,V
cliff,N
clever,J
decade,N
fact,N
job,N
fee,N
eye,N
explore,V
journey,N
juice,N
justify,V
examine,V
kid,N
investigate,V
intelligent,J
companion,N
inch,N
cruel,J
illness,N
image,N
imagine,V
immoral,J
important,J
college,N
finger,N
date,N
infection,N
information,N
coat,N
inquire,V
insight,N
danger,N
fever,N
molecule,N
horn,N
carriage,N
awful,J
satisfy,V
say,V
school,N
bathroom,N
seem,V
bar,N
sheep,N
balloon,N
side,N
baby,N
situation,N
salary,N
sky,N
smart,J
snow,N
avoid,V
author,N
song,N
aunt,N
speak,V
attention,N
spine,N
sandwich,N
salad,N
professor,N
rationalize,V
proud,J
prove,V
pupil,N
blood,N
pursue,V
quit,V
rabbi,N
birthday,N
rain,N
rapid,J
bicycle,N
sad,J
bible,N
reality,N
recommend,V
bell,N
remind,V
believe,V
require,V
restore,V
retain,V
roof,N
atom,N
steak,N
assume,V
want,V
turkey,N
aisle,N
air,N
valley,N
verify,V
actor,N
wagon,N
waist,N
wall,N
wander,V
action,N
street,N
water,N
weather,N
accident,N
wide,J
window,N
winter,N
withdraw,V
wood,N
wrist,N
yard,N
alley,N
allow,V
aluminum,N
analyze,V
ashamed,J
student,N
article,N
style,N
arrange,V
sunset,N
sunshine,N
supper,N
sure,J
arithmetic,N
anxious,J
terrible,J
announce,V
animal,N
angry,J
throat,N
thumb,N
tin,N
ancient,J
top,N
topic,N
proper,J
rhythm,N
paragraph,N
old,J
paper,N
multiply,V
brandy,N
parade,N
plane,N
parent,N
partner,N
bride,N
obvious,J
news,N
obtain,V
newspaper,N
nice,J
obey,V
bridge,N
owe,V
broad,J
persuade,V
noise,N
buddy,N
nose,N
normal,J
north,N
odd,J
build,V
pollution,N
cannon,N
priest,N
capability,N
page,N
predict,V
bus,N
organ,N
booth,N
pray,V
motor,N
originate,V
mood,N
bottle,N
buy,V
orthodontist,N
bottom,N
pact,N
arrow,N
champion,N
calf,N
criticism,N
calendar,N
butter,N
button,N
crucial,J
angle,N
ant,N
crystal,N
chaos,N
chapel,N
apparent,J
appliance,N
appoint,V
dad,N
appointment,N
archbishop,N
curve,N
cage,N
anchor,N
curtain,N
charcoal,N
cheek,N
bold,J
definition,N
anatomy,N
candidate,N
candy,N
cellar,N
destruction,N
determine,V
devil,N
diamond,N
cell,N
canyon,N
celebration,N
capital,N
cathedral,N
captain,N
abundance,N
carbon,N
different,J
card,N
absence,N
cardboard,N
ability,N
activity,N
actress,N
declare,V
despair,N
anarchy,N
certain,J
decoration,N
ceremony,N
cereal,N
airport,N
demon,N
denial,N
camp,N
agony,N
aggression,N
cancer,N
age,N
afraid,J
advise,V
depth,N
adversary,N
administration,N
deserve,V
assignment,N
cradle,N
bush,N
clarify,V
class,N
company,N
bias,N
beverage,N
compare,V
bench,N
composer,N
belt,N
belly,N
breathe,V
biography,N
computer,N
concept,N
brick,N
conclude,V
circumstance,N
cone,N
confession,N
cigarette,N
carpet,N
classroom,N
brain,N
atmosphere,N
coffee,N
club,N
clue,N
cloth,N
coal,N
coast,N
closet,N
border,N
cocktail,N
code,N
collect,V
biology,N
blanket,N
blade,N
bizarre,J
colonel,N
colt,N
bishop,N
boundary,N
comfort,N
communicate,V
behave,V
confident,J
confusion,N
burial,N
costume,N
bag,N
cottage,N
childish,J
cotton,N
couple,N
awareness,N
bunch,N
chief,N
aviation,N
beef,N
cousin,N
chest,N
august,N
attorney,N
attitude,N
cherish,V
chemistry,N
cheese,N
attach,V
ballad,N
chocolate,N
corporation,N
corner,N
brow,N
bubble,N
construction,N
beauty,N
church,N
beautiful,J
beast,N
battle,N
bulb,N
contemplate,V
basketball,N
conversation,N
basket,N
choir,N
barn,N
cop,N
bull,N
banker,N
cord,N
difficulty,N
zone,N
dirt,N
reef,N
root,N
rod,N
roam,V
right,N
restless,J
replace,V
region,N
reflection,N
reduce,V
safety,N
recent,J
realize,V
reader,N
read,V
ray,N
rattle,N
rat,N
rail,N
rough,J
sailor,N
disc,N
secretary,N
sheriff,N
shelter,N
sharp,J
shame,N
sentry,N
sense,N
self,N
seed,N
second,N
saint,N
season,N
seashore,N
scientist,N
science,N
scheme,N
scarce,J
sauce,N
salt,N
racket,N
rabbit,N
quick,J
peace,N
pilot,N
pie,N
physician,N
phrase,N
pet,N
person,N
perception,N
pearl,N
payment,N
quest,N
passion,N
party,N
palm,N
pair,N
pain,N
ox,N
overcome,V
order,N
pipe,N
planet,N
plate,N
plenty,N
queen,N
purse,N
psychology,N
proof,N
profession,N
proclaim,V
prince,N
pride,N
prey,N
prestige,N
poverty,N
potato,N
pot,N
population,N
polyester,N
politician,N
polite,J
shore,N
short,J
sick,J
trip,N
verdict,N
vehicle,N
vanish,V
value,N
unnecessary,J
universe,N
unhappy,J
triumph,N
trial,N
theory,N
tree,N
tragedy,N
tower,N
tooth,N
toe,N
tobacco,N
tiny,J
timber,N
vessel,N
victor,N
victory,N
vinegar,N
year,N
writer,N
world,N
wisdom,N
wire,N
wheat,N
west,N
weekend,N
week,N
way,N
warrior,N
vitamin,N
vision,N
violin,N
violet,N
violent,J
violation,N
threat,N
theme,N
sickness,N
south,N
strong,J
stream,N
steeple,N
state,N
squad,N
spoon,N
spirit,N
spend,V
soup,N
theft,N
soul,N
sorrow,N
soldier,N
sofa,N
society,N
skill,N
sinner,N
singer,N
stud,N
stupid,J
suds,N
sugar,N
text,N
temper,N
television,N
telephone,N
teeth,N
tear,N
tea,N
taxi,N
tax,N
target,N
symbol,N
sweater,N
swamp,N
surgery,N
sunrise,N
sun,N
summer,N
orchestra,N
opponent,N
oil,N
glove,N
guitar,N
guest,N
groom,N
grief,N
greet,V
grade,N
gossip,N
goat,N
globe,N
fragile,J
glass,N
gentleman,N
gauge,N
gate,N
garden,N
fury,N
frustration,N
friendly,J
gut,N
hall,N
harm,N
harsh,J
hurricane,N
hound,N
hotel,N
hostility,N
hospital,N
honey,N
honest,J
home,N
hip,N
hill,N
heroine,N
hero,N
herb,N
helium,N
heart,N
haze,N
hawk,N
fraud,N
fox,N
ice,N
effort,N
enjoy,V
engagement,N
engage,V
encourage,V
employee,N
emergency,N
elegance,N
elastic,J
dusk,N
formal,J
drizzle,N
driver,N
dreary,J
drawer,N
dollar,N
disorganize,V
discussion,N
discuss,V
equation,N
era,N
essay,N
essential,J
football,N
fog,N
flu,N
flour,N
flight,N
flesh,N
film,N
fiction,N
fence,N
fast,J
fashion,N
fantasy,N
fame,N
factory,N
expand,V
exotic,J
exit,N
hysteria,N
ignorance,N
ocean,N
mechanic,N
misery,N
minute,N
minister,N
milk,N
might,N
menu,N
men,N
medium,N
marrow,N
lover,N
marijuana,N
mare,N
manner,N
manager,N
maker,N
machine,N
lung,N
lunch,N
mob,N
modern,J
monk,N
monster,N
occur,V
oak,N
nurse,N
noticeable,J
nephew,N
navy,N
mustard,N
music,N
mud,N
movie,N
movement,N
mountain,N
motel,N
moss,N
morning,N
moon,N
month,N
luck,N
loop,N
illegal,J
insane,J
jaw,N
iron,N
intuition,N
interest,N
instrument,N
instructor,N
inspect,V
insect,N
inn,N
locate,V
inform,V
inexpensive,J
industry,N
income,N
impression,N
impatient,J
imitate,V
illusion,N
jet,N
journal,N
joy,N
justice,N
lion,N
linen,N
limb,N
letter,N
lens,N
legion,N
ledge,N
leader,N
law,N
language,N
lamb,N
lake,N
lady,N
laden,J
knife,N
kidney,N
key,N
abdomen,N
