728541465983455233,2016-05-06 11:06:35,South West, England
728541959548243970,2016-05-06 11:08:33,Deal, England
728542372464885760,2016-05-06 11:10:11,Lattingtown, NY
728542755094417408,2016-05-06 11:11:43,Dublin City, Ireland
728542794013396993,2016-05-06 11:11:52,West Midlands, England
728542936594558976,2016-05-06 11:12:26,Brooklyn, NY
728543288790257664,2016-05-06 11:13:50,New York, USA
728543683256197125,2016-05-06 11:15:24,Camberwell, London
728543710766612481,2016-05-06 11:15:30,Bristol, England
